tomasulo/sec_taskBMC_bug/engine_0/trace.vcd
$version Generated by Yosys-SMTBMC $end
$timescale 1ns $end
$var integer 32 t smt_step $end
$var event 1 ! smt_clock $end
$scope module Tomasulo $end
$var wire 6 n0 PC $end
$var wire 1 n1 Pinit $end
$var wire 4 n91 RAT<00> $end
$var wire 4 n96 RAT<01> $end
$var wire 4 n98 RAT<02> $end
$var wire 4 n101 RAT<03> $end
$var wire 4 n95 RAT<04> $end
$var wire 4 n92 RAT<05> $end
$var wire 4 n93 RAT<06> $end
$var wire 4 n94 RAT<07> $end
$var wire 4 n97 RAT<08> $end
$var wire 4 n102 RAT<09> $end
$var wire 4 n99 RAT<0a> $end
$var wire 4 n100 RAT<11> $end
$var wire 5 n2 ROB_Dest<0> $end
$var wire 5 n3 ROB_Dest<1> $end
$var wire 5 n4 ROB_Dest<2> $end
$var wire 5 n5 ROB_Dest<3> $end
$var wire 5 n6 ROB_Dest<4> $end
$var wire 5 n7 ROB_Dest<5> $end
$var wire 5 n8 ROB_Dest<6> $end
$var wire 5 n9 ROB_Dest<7> $end
$var wire 8 n10 ROB_busy $end
$var wire 3 n11 ROB_head_ptr $end
$var wire 3 n12 ROB_tail_ptr $end
$var wire 8 n13 ROB_valid $end
$var wire 3 n105 RS_Add_Dest_tag<0> $end
$var wire 3 n103 RS_Add_Dest_tag<1> $end
$var wire 3 n106 RS_Add_Dest_tag<2> $end
$var wire 3 n104 RS_Add_Dest_tag<3> $end
$var wire 3 n109 RS_Add_Instr<0> $end
$var wire 3 n107 RS_Add_Instr<1> $end
$var wire 3 n110 RS_Add_Instr<2> $end
$var wire 3 n108 RS_Add_Instr<3> $end
$var wire 6 n113 RS_Add_PC<0> $end
$var wire 6 n111 RS_Add_PC<1> $end
$var wire 6 n114 RS_Add_PC<2> $end
$var wire 6 n112 RS_Add_PC<3> $end
$var wire 3 n117 RS_Add_S1_tag<0> $end
$var wire 3 n115 RS_Add_S1_tag<1> $end
$var wire 3 n118 RS_Add_S1_tag<2> $end
$var wire 3 n116 RS_Add_S1_tag<3> $end
$var wire 4 n14 RS_Add_S1_valid $end
$var wire 3 n121 RS_Add_S2_tag<0> $end
$var wire 3 n119 RS_Add_S2_tag<1> $end
$var wire 3 n122 RS_Add_S2_tag<2> $end
$var wire 3 n120 RS_Add_S2_tag<3> $end
$var wire 4 n15 RS_Add_S2_valid $end
$var wire 4 n16 RS_Add_busy $end
$var wire 2 n17 RS_Add_count $end
$var wire 4 n18 aa_head_ptr $end
$var wire 4 n19 aa_tail_ptr $end
$var wire 16 n20 bad<0> $end
$var wire 16 n21 bad<10> $end
$var wire 16 n22 bad<11> $end
$var wire 16 n23 bad<12> $end
$var wire 16 n24 bad<13> $end
$var wire 16 n25 bad<14> $end
$var wire 16 n26 bad<15> $end
$var wire 16 n27 bad<1> $end
$var wire 16 n28 bad<2> $end
$var wire 16 n29 bad<3> $end
$var wire 16 n30 bad<4> $end
$var wire 16 n31 bad<5> $end
$var wire 16 n32 bad<6> $end
$var wire 16 n33 bad<7> $end
$var wire 16 n34 bad<8> $end
$var wire 16 n35 bad<9> $end
$var wire 1 n36 clk $end
$var wire 1 n37 disj_bad $end
$var wire 1 n38 done<0> $end
$var wire 1 n39 done<10> $end
$var wire 1 n40 done<11> $end
$var wire 1 n41 done<12> $end
$var wire 1 n42 done<13> $end
$var wire 1 n43 done<14> $end
$var wire 1 n44 done<15> $end
$var wire 1 n45 done<1> $end
$var wire 1 n46 done<2> $end
$var wire 1 n47 done<3> $end
$var wire 1 n48 done<4> $end
$var wire 1 n49 done<5> $end
$var wire 1 n50 done<6> $end
$var wire 1 n51 done<7> $end
$var wire 1 n52 done<8> $end
$var wire 1 n53 done<9> $end
$var wire 1 n136 events<0> $end
$var wire 1 n123 events<1> $end
$var wire 1 n130 events<2> $end
$var wire 1 n127 events<3> $end
$var wire 1 n133 events<4> $end
$var wire 1 n129 events<5> $end
$var wire 1 n135 events<6> $end
$var wire 1 n128 events<7> $end
$var wire 1 n124 events<8> $end
$var wire 1 n132 events<9> $end
$var wire 1 n134 events<a> $end
$var wire 1 n138 events<b> $end
$var wire 1 n125 events<c> $end
$var wire 1 n126 events<d> $end
$var wire 1 n131 events<e> $end
$var wire 1 n137 events<f> $end
$var wire 32 n54 i_events $end
$var wire 16 n55 in_use $end
$var wire 1 n56 init $end
$var wire 32 n152 instr_U<0> $end
$var wire 32 n139 instr_U<1> $end
$var wire 32 n146 instr_U<2> $end
$var wire 32 n143 instr_U<3> $end
$var wire 32 n149 instr_U<4> $end
$var wire 32 n145 instr_U<5> $end
$var wire 32 n151 instr_U<6> $end
$var wire 32 n144 instr_U<7> $end
$var wire 32 n140 instr_U<8> $end
$var wire 32 n148 instr_U<9> $end
$var wire 32 n150 instr_U<a> $end
$var wire 32 n154 instr_U<b> $end
$var wire 32 n141 instr_U<c> $end
$var wire 32 n142 instr_U<d> $end
$var wire 32 n147 instr_U<e> $end
$var wire 32 n153 instr_U<f> $end
$var wire 32 n57 instr_stream $end
$var wire 6 n58 next_pc $end
$var wire 3 n59 pr_Add_Sub_Instr $end
$var wire 6 n60 pr_Add_Sub_PC $end
$var wire 3 n61 pr_Add_Sub_Tag $end
$var wire 1 n62 pr_Add_Sub_result_valid $end
$var wire 3 n63 pr_Add_Sub_tag $end
$var wire 3 n64 pr_funct3 $end
$var wire 7 n65 pr_funct7 $end
$var wire 12 n66 pr_immediate $end
$var wire 3 n67 pr_instr $end
$var wire 32 n68 pr_instr_fetch $end
$var wire 7 n69 pr_opcode $end
$var wire 5 n70 pr_rd $end
$var wire 5 n71 pr_rs1 $end
$var wire 5 n72 pr_rs2 $end
$var wire 16 n73 pred_DependsOn<0> $end
$var wire 16 n74 pred_DependsOn<10> $end
$var wire 16 n75 pred_DependsOn<11> $end
$var wire 16 n76 pred_DependsOn<12> $end
$var wire 16 n77 pred_DependsOn<13> $end
$var wire 16 n78 pred_DependsOn<14> $end
$var wire 16 n79 pred_DependsOn<15> $end
$var wire 16 n80 pred_DependsOn<1> $end
$var wire 16 n81 pred_DependsOn<2> $end
$var wire 16 n82 pred_DependsOn<3> $end
$var wire 16 n83 pred_DependsOn<4> $end
$var wire 16 n84 pred_DependsOn<5> $end
$var wire 16 n85 pred_DependsOn<6> $end
$var wire 16 n86 pred_DependsOn<7> $end
$var wire 16 n87 pred_DependsOn<8> $end
$var wire 16 n88 pred_DependsOn<9> $end
$var wire 1 n89 reset $end
$var wire 1 n90 stall_flag $end
$var wire 6 n168 windows<0> $end
$var wire 6 n155 windows<1> $end
$var wire 6 n162 windows<2> $end
$var wire 6 n159 windows<3> $end
$var wire 6 n165 windows<4> $end
$var wire 6 n161 windows<5> $end
$var wire 6 n167 windows<6> $end
$var wire 6 n160 windows<7> $end
$var wire 6 n156 windows<8> $end
$var wire 6 n164 windows<9> $end
$var wire 6 n166 windows<a> $end
$var wire 6 n170 windows<b> $end
$var wire 6 n157 windows<c> $end
$var wire 6 n158 windows<d> $end
$var wire 6 n163 windows<e> $end
$var wire 6 n169 windows<f> $end
$upscope $end
$enddefinitions $end
#0
1!
b00000000000000000000000000000000 t
b1 n36
b000000 n0
b1 n1
b00000 n2
b00000 n3
b00000 n4
b00000 n5
b00000 n6
b00000 n7
b00001 n8
b00000 n9
b00000000 n10
b000 n11
b000 n12
b00000000 n13
b0000 n14
b0000 n15
b0000 n16
b00 n17
b0000 n18
b0000 n19
b0000000000000000 n20
b0000000000000000 n21
b0000000000000000 n22
b0000000000000000 n23
b0000000000000000 n24
b0000000000000000 n25
b0000000000000000 n26
b0000000000000000 n27
b0000000000000000 n28
b0000000000000000 n29
b0000000000000000 n30
b0000000000000000 n31
b0000000000000000 n32
b0000000000000000 n33
b0000000000000000 n34
b0000000000000000 n35
b0 n37
b0 n38
b0 n39
b0 n40
b0 n41
b0 n42
b0 n43
b0 n44
b0 n45
b0 n46
b0 n47
b0 n48
b0 n49
b0 n50
b0 n51
b0 n52
b0 n53
b00000000000000000000000000010000 n54
b0000000000000000 n55
b1 n56
b00000000000000000000000000000000 n57
b000100 n58
b000 n59
b000000 n60
b000 n61
b0 n62
b000 n63
b000 n64
b0000000 n65
b000000000000 n66
b000 n67
b00000000000000000000000000000000 n68
b0000000 n69
b00000 n70
b00000 n71
b00000 n72
b0000000000000000 n73
b0000000000000000 n74
b0000000000000000 n75
b0000000000000000 n76
b0000000000000000 n77
b0000000000000000 n78
b0000000000000000 n79
b0000000000000000 n80
b0000000000000000 n81
b0000000000000000 n82
b0000000000000000 n83
b0000000000000000 n84
b0000000000000000 n85
b0000000000000000 n86
b0000000000000000 n87
b0000000000000000 n88
b1 n89
b0 n90
b0000 n91
b1000 n92
b1000 n93
bxxxx n94
b1000 n95
b1000 n96
bxxxx n97
b1000 n98
bxxxx n99
bxxxx n100
bxxxx n101
bxxxx n102
b001 n103
b000 n104
b011 n105
b000 n106
b111 n107
b000 n108
b101 n109
b000 n110
b000000 n111
b000000 n112
b000000 n113
b000000 n114
b011 n115
b001 n116
b001 n117
b101 n118
b000 n119
b001 n120
b111 n121
b111 n122
b0 n123
b0 n124
b0 n125
b0 n126
b0 n127
b0 n128
b0 n129
b0 n130
b0 n131
b0 n132
b0 n133
b0 n134
b0 n135
b0 n136
b0 n137
b0 n138
b00000000000000000000000000000000 n139
b00000000000000000000000000000000 n140
b00000000000000000000000000000000 n141
b00000000000000000000000000000000 n142
b00000000000000000000000000000000 n143
b00000000000000000000000000000000 n144
b00000000000000000000000000000000 n145
b00000000000000000000000000000000 n146
b00000000000000000000000000000000 n147
b00000000000000000000000000000000 n148
b00000000000000000000000000000000 n149
b00000000000000000000000000000000 n150
b00000000000000000000000000000000 n151
b00000000000000000000000000000000 n152
b00000000000000000000000000000000 n153
b00000000000000000000000000000000 n154
b000000 n155
b000000 n156
b000000 n157
b000000 n158
b000000 n159
b000000 n160
b000000 n161
b000000 n162
b000000 n163
b000000 n164
b000000 n165
b000000 n166
b000000 n167
b000000 n168
b000000 n169
b000000 n170
#5
b0 n36
#10
1!
b00000000000000000000000000000001 t
b1 n36
b000000 n0
b1 n1
b00000 n2
b00000 n3
b00000 n4
b00000 n5
b00000 n6
b00000 n7
b00001 n8
b00000 n9
b00000000 n10
b000 n11
b000 n12
b00000000 n13
b0000 n14
b0000 n15
b0000 n16
b00 n17
b0000 n18
b0000 n19
b0000000000000000 n20
b0000000000000000 n21
b0000000000000000 n22
b0000000000000000 n23
b0000000000000000 n24
b0000000000000000 n25
b0000000000000000 n26
b0000000000000000 n27
b0000000000000000 n28
b0000000000000000 n29
b0000000000000000 n30
b0000000000000000 n31
b0000000000000000 n32
b0000000000000000 n33
b0000000000000000 n34
b0000000000000000 n35
b0 n37
b0 n38
b0 n39
b0 n40
b0 n41
b0 n42
b0 n43
b0 n44
b0 n45
b0 n46
b0 n47
b0 n48
b0 n49
b0 n50
b0 n51
b0 n52
b0 n53
b00000000000000000000000000010000 n54
b0000000000000000 n55
b0 n56
b00000000001000100000000010110011 n57
b000100 n58
b000 n59
b000000 n60
b000 n61
b0 n62
b000 n63
b000 n64
b0000000 n65
b000000000000 n66
b000 n67
b00000000000000000000000000000000 n68
b0000000 n69
b00000 n70
b00000 n71
b00000 n72
b0000000000000000 n73
b0000000000000000 n74
b0000000000000000 n75
b0000000000000000 n76
b0000000000000000 n77
b0000000000000000 n78
b0000000000000000 n79
b0000000000000000 n80
b0000000000000000 n81
b0000000000000000 n82
b0000000000000000 n83
b0000000000000000 n84
b0000000000000000 n85
b0000000000000000 n86
b0000000000000000 n87
b0000000000000000 n88
b0 n89
b0 n90
b0000 n91
b1000 n92
b1000 n93
b1000 n94
b1000 n95
b1000 n96
b1000 n97
b1000 n98
b1000 n99
bxxxx n100
b1000 n101
b1000 n102
b001 n103
b000 n104
b011 n105
b000 n106
b111 n107
b000 n108
b101 n109
b000 n110
b000000 n111
b000000 n112
b000000 n113
b000000 n114
b011 n115
b001 n116
b001 n117
b101 n118
b000 n119
b001 n120
b111 n121
b111 n122
b0 n123
b0 n124
b0 n125
b0 n126
b0 n127
b0 n128
b0 n129
b0 n130
b0 n131
b0 n132
b0 n133
b0 n134
b0 n135
b0 n136
b0 n137
b0 n138
b00000000000000000000000000000000 n139
b00000000000000000000000000000000 n140
b00000000000000000000000000000000 n141
b00000000000000000000000000000000 n142
b00000000000000000000000000000000 n143
b00000000000000000000000000000000 n144
b00000000000000000000000000000000 n145
b00000000000000000000000000000000 n146
b00000000000000000000000000000000 n147
b00000000000000000000000000000000 n148
b00000000000000000000000000000000 n149
b00000000000000000000000000000000 n150
b00000000000000000000000000000000 n151
b00000000000000000000000000000000 n152
b00000000000000000000000000000000 n153
b00000000000000000000000000000000 n154
b000000 n155
b000000 n156
b000000 n157
b000000 n158
b000000 n159
b000000 n160
b000000 n161
b000000 n162
b000000 n163
b000000 n164
b000000 n165
b000000 n166
b000000 n167
b000000 n168
b000000 n169
b000000 n170
#15
b0 n36
#20
1!
b00000000000000000000000000000010 t
b1 n36
b000100 n0
b0 n1
b00000 n2
b00000 n3
b00000 n4
b00000 n5
b00000 n6
b00000 n7
b00001 n8
b00000 n9
b00000000 n10
b000 n11
b000 n12
b00000000 n13
b0000 n14
b0000 n15
b0000 n16
b00 n17
b0000 n18
b0001 n19
b0000000000000000 n20
b0000000000000000 n21
b0000000000000000 n22
b0000000000000000 n23
b0000000000000000 n24
b0000000000000000 n25
b0000000000000000 n26
b0000000000000000 n27
b0000000000000000 n28
b0000000000000000 n29
b0000000000000000 n30
b0000000000000000 n31
b0000000000000000 n32
b0000000000000000 n33
b0000000000000000 n34
b0000000000000000 n35
b0 n37
b0 n38
b0 n39
b0 n40
b0 n41
b0 n42
b0 n43
b0 n44
b0 n45
b0 n46
b0 n47
b0 n48
b0 n49
b0 n50
b0 n51
b0 n52
b0 n53
b00000000000000000000000000010000 n54
b0000000000000001 n55
b0 n56
b00000000000100100000000100110011 n57
b001000 n58
b000 n59
b000000 n60
b000 n61
b0 n62
b000 n63
b000 n64
b0000000 n65
b000000000010 n66
b001 n67
b00000000001000100000000010110011 n68
b0110011 n69
b00001 n70
b00100 n71
b00010 n72
b0000000000000000 n73
b0000000000000000 n74
b0000000000000000 n75
b0000000000000000 n76
b0000000000000000 n77
b0000000000000000 n78
b0000000000000000 n79
b0000000000000000 n80
b0000000000000000 n81
b0000000000000000 n82
b0000000000000000 n83
b0000000000000000 n84
b0000000000000000 n85
b0000000000000000 n86
b0000000000000000 n87
b0000000000000000 n88
b0 n89
b0 n90
b0000 n91
b1000 n92
b1000 n93
b1000 n94
b1000 n95
b1000 n96
b1000 n97
b1000 n98
b1000 n99
bxxxx n100
b1000 n101
b1000 n102
b001 n103
b000 n104
b011 n105
b000 n106
b111 n107
b000 n108
b101 n109
b000 n110
b000000 n111
b000000 n112
b000000 n113
b000000 n114
b011 n115
b001 n116
b001 n117
b101 n118
b000 n119
b001 n120
b111 n121
b111 n122
b0 n123
b0 n124
b0 n125
b0 n126
b0 n127
b0 n128
b0 n129
b0 n130
b0 n131
b0 n132
b0 n133
b0 n134
b0 n135
b0 n136
b0 n137
b0 n138
b00000000000000000000000000000000 n139
b00000000000000000000000000000000 n140
b00000000000000000000000000000000 n141
b00000000000000000000000000000000 n142
b00000000000000000000000000000000 n143
b00000000000000000000000000000000 n144
b00000000000000000000000000000000 n145
b00000000000000000000000000000000 n146
b00000000000000000000000000000000 n147
b00000000000000000000000000000000 n148
b00000000000000000000000000000000 n149
b00000000000000000000000000000000 n150
b00000000000000000000000000000000 n151
b00000000001000100000000010110011 n152
b00000000000000000000000000000000 n153
b00000000000000000000000000000000 n154
b000000 n155
b000000 n156
b000000 n157
b000000 n158
b000000 n159
b000000 n160
b000000 n161
b000000 n162
b000000 n163
b000000 n164
b000000 n165
b000000 n166
b000000 n167
b000100 n168
b000000 n169
b000000 n170
#25
b0 n36
#30
1!
b00000000000000000000000000000011 t
b1 n36
b001000 n0
b0 n1
b00001 n2
b00000 n3
b00000 n4
b00000 n5
b00000 n6
b00000 n7
b00001 n8
b00000 n9
b00000001 n10
b000 n11
b001 n12
b00000000 n13
b0001 n14
b0001 n15
b0001 n16
b01 n17
b0000 n18
b0010 n19
b0000000000000000 n20
b0000000000000000 n21
b0000000000000000 n22
b0000000000000000 n23
b0000000000000000 n24
b0000000000000000 n25
b0000000000000000 n26
b0000000000000000 n27
b0000000000000000 n28
b0000000000000000 n29
b0000000000000000 n30
b0000000000000000 n31
b0000000000000000 n32
b0000000000000000 n33
b0000000000000000 n34
b0000000000000000 n35
b0 n37
b0 n38
b0 n39
b0 n40
b0 n41
b0 n42
b0 n43
b0 n44
b0 n45
b0 n46
b0 n47
b0 n48
b0 n49
b0 n50
b0 n51
b0 n52
b0 n53
b00000000000000000000000000010000 n54
b0000000000000011 n55
b0 n56
b00000000010100100000001100110011 n57
b001100 n58
b000 n59
b000000 n60
b000 n61
b0 n62
b000 n63
b000 n64
b0000000 n65
b000000000001 n66
b001 n67
b00000000000100100000000100110011 n68
b0110011 n69
b00010 n70
b00100 n71
b00001 n72
b0000000000000010 n73
b0000000000000000 n74
b0000000000000000 n75
b0000000000000000 n76
b0000000000000000 n77
b0000000000000000 n78
b0000000000000000 n79
b0000000000000000 n80
b0000000000000000 n81
b0000000000000000 n82
b0000000000000000 n83
b0000000000000000 n84
b0000000000000000 n85
b0000000000000000 n86
b0000000000000000 n87
b0000000000000000 n88
b0 n89
b0 n90
b0000 n91
b1000 n92
b1000 n93
b1000 n94
b1000 n95
b0000 n96
b1000 n97
b1000 n98
b1000 n99
bxxxx n100
b1000 n101
b1000 n102
b001 n103
b000 n104
b000 n105
b000 n106
b111 n107
b000 n108
b001 n109
b000 n110
b000000 n111
b000000 n112
b000100 n113
b000000 n114
b011 n115
b001 n116
b001 n117
b101 n118
b000 n119
b001 n120
b111 n121
b111 n122
b0 n123
b0 n124
b0 n125
b0 n126
b0 n127
b0 n128
b0 n129
b0 n130
b0 n131
b0 n132
b0 n133
b0 n134
b0 n135
b0 n136
b0 n137
b0 n138
b00000000000100100000000100110011 n139
b00000000000000000000000000000000 n140
b00000000000000000000000000000000 n141
b00000000000000000000000000000000 n142
b00000000000000000000000000000000 n143
b00000000000000000000000000000000 n144
b00000000000000000000000000000000 n145
b00000000000000000000000000000000 n146
b00000000000000000000000000000000 n147
b00000000000000000000000000000000 n148
b00000000000000000000000000000000 n149
b00000000000000000000000000000000 n150
b00000000000000000000000000000000 n151
b00000000001000100000000010110011 n152
b00000000000000000000000000000000 n153
b00000000000000000000000000000000 n154
b001000 n155
b000000 n156
b000000 n157
b000000 n158
b000000 n159
b000000 n160
b000000 n161
b000000 n162
b000000 n163
b000000 n164
b000000 n165
b000000 n166
b000000 n167
b000100 n168
b000000 n169
b000000 n170
#35
b0 n36
#40
1!
b00000000000000000000000000000100 t
b1 n36
b001100 n0
b0 n1
b00001 n2
b00010 n3
b00000 n4
b00000 n5
b00000 n6
b00000 n7
b00001 n8
b00000 n9
b00000011 n10
b000 n11
b010 n12
b00000000 n13
b0010 n14
b0000 n15
b0010 n16
b10 n17
b0000 n18
b0011 n19
b0000000000000000 n20
b0000000000000000 n21
b0000000000000000 n22
b0000000000000000 n23
b0000000000000000 n24
b0000000000000000 n25
b0000000000000000 n26
b0000000000000000 n27
b0000000000000000 n28
b0000000000000000 n29
b0000000000000000 n30
b0000000000000000 n31
b0000000000000000 n32
b0000000000000000 n33
b0000000000000000 n34
b0000000000000000 n35
b0 n37
b0 n38
b0 n39
b0 n40
b0 n41
b0 n42
b0 n43
b0 n44
b0 n45
b0 n46
b0 n47
b0 n48
b0 n49
b0 n50
b0 n51
b0 n52
b0 n53
b00000000000000000000000000010000 n54
b0000000000000111 n55
b0 n56
b00000000000100100000000100110011 n57
b010000 n58
b001 n59
b000100 n60
b000 n61
b0 n62
b000 n63
b000 n64
b0000000 n65
b000000000101 n66
b001 n67
b00000000010100100000001100110011 n68
b0110011 n69
b00110 n70
b00100 n71
b00101 n72
b0000000000000010 n73
b0000000000000000 n74
b0000000000000000 n75
b0000000000000000 n76
b0000000000000000 n77
b0000000000000000 n78
b0000000000000000 n79
b0000000000000000 n80
b0000000000000000 n81
b0000000000000000 n82
b0000000000000000 n83
b0000000000000000 n84
b0000000000000000 n85
b0000000000000000 n86
b0000000000000000 n87
b0000000000000000 n88
b0 n89
b0 n90
b0000 n91
b1000 n92
b1000 n93
b1000 n94
b1000 n95
b1000 n96
b1000 n97
b0001 n98
b1000 n99
bxxxx n100
b1000 n101
b1000 n102
b001 n103
b000 n104
b000 n105
b000 n106
b001 n107
b000 n108
b001 n109
b000 n110
b001000 n111
b000000 n112
b000100 n113
b000000 n114
b011 n115
b001 n116
b001 n117
b101 n118
b000 n119
b001 n120
b111 n121
b111 n122
b0 n123
b0 n124
b0 n125
b0 n126
b0 n127
b0 n128
b0 n129
b0 n130
b0 n131
b0 n132
b0 n133
b0 n134
b0 n135
b0 n136
b0 n137
b0 n138
b00000000000100100000000100110011 n139
b00000000000000000000000000000000 n140
b00000000000000000000000000000000 n141
b00000000000000000000000000000000 n142
b00000000000000000000000000000000 n143
b00000000000000000000000000000000 n144
b00000000000000000000000000000000 n145
b00000000010100100000001100110011 n146
b00000000000000000000000000000000 n147
b00000000000000000000000000000000 n148
b00000000000000000000000000000000 n149
b00000000000000000000000000000000 n150
b00000000000000000000000000000000 n151
b00000000001000100000000010110011 n152
b00000000000000000000000000000000 n153
b00000000000000000000000000000000 n154
b001000 n155
b000000 n156
b000000 n157
b000000 n158
b000000 n159
b000000 n160
b000000 n161
b001100 n162
b000000 n163
b000000 n164
b000000 n165
b000000 n166
b000000 n167
b000100 n168
b000000 n169
b000000 n170
#45
b0 n36
#50
1!
b00000000000000000000000000000101 t
b1 n36
b010000 n0
b0 n1
b00001 n2
b00010 n3
b00110 n4
b00000 n5
b00000 n6
b00000 n7
b00001 n8
b00000 n9
b00000111 n10
b000 n11
b011 n12
b00000000 n13
b0110 n14
b0100 n15
b0110 n16
b11 n17
b0000 n18
b0100 n19
b0000000000000000 n20
b0000000000000000 n21
b0000000000000000 n22
b0000000000000000 n23
b0000000000000000 n24
b0000000000000000 n25
b0000000000000000 n26
b0000000000000000 n27
b0000000000000000 n28
b0000000000000000 n29
b0000000000000000 n30
b0000000000000000 n31
b0000000000000000 n32
b0000000000000000 n33
b0000000000000000 n34
b0000000000000000 n35
b0 n37
b1 n38
b0 n39
b0 n40
b0 n41
b0 n42
b0 n43
b0 n44
b0 n45
b0 n46
b0 n47
b0 n48
b0 n49
b0 n50
b0 n51
b0 n52
b0 n53
b00000000000000000000000000010000 n54
b0000000000001111 n55
b0 n56
b00000000001000100000000010110011 n57
b010100 n58
b000 n59
b000100 n60
b000 n61
b1 n62
b000 n63
b000 n64
b0000000 n65
b000000000001 n66
b001 n67
b00000000000100100000000100110011 n68
b0110011 n69
b00010 n70
b00100 n71
b00001 n72
b0000000000000010 n73
b0000000000000000 n74
b0000000000000000 n75
b0000000000000000 n76
b0000000000000000 n77
b0000000000000000 n78
b0000000000000000 n79
b0000000000000000 n80
b0000000000000000 n81
b0000000000000000 n82
b0000000000000000 n83
b0000000000000000 n84
b0000000000000000 n85
b0000000000000000 n86
b0000000000000000 n87
b0000000000000000 n88
b0 n89
b0 n90
b0000 n91
b1000 n92
b0010 n93
b1000 n94
b1000 n95
b1000 n96
b1000 n97
b0001 n98
b1000 n99
bxxxx n100
b1000 n101
b1000 n102
b001 n103
b000 n104
b000 n105
b010 n106
b001 n107
b000 n108
b001 n109
b001 n110
b001000 n111
b000000 n112
b000100 n113
b001100 n114
b011 n115
b001 n116
b001 n117
b101 n118
b000 n119
b001 n120
b111 n121
b111 n122
b0 n123
b0 n124
b0 n125
b0 n126
b0 n127
b0 n128
b0 n129
b0 n130
b0 n131
b0 n132
b0 n133
b0 n134
b0 n135
b1 n136
b0 n137
b0 n138
b00000000000100100000000100110011 n139
b00000000000000000000000000000000 n140
b00000000000000000000000000000000 n141
b00000000000000000000000000000000 n142
b00000000000100100000000100110011 n143
b00000000000000000000000000000000 n144
b00000000000000000000000000000000 n145
b00000000010100100000001100110011 n146
b00000000000000000000000000000000 n147
b00000000000000000000000000000000 n148
b00000000000000000000000000000000 n149
b00000000000000000000000000000000 n150
b00000000000000000000000000000000 n151
b00000000001000100000000010110011 n152
b00000000000000000000000000000000 n153
b00000000000000000000000000000000 n154
b001000 n155
b000000 n156
b000000 n157
b000000 n158
b010000 n159
b000000 n160
b000000 n161
b001100 n162
b000000 n163
b000000 n164
b000000 n165
b000000 n166
b000000 n167
b000100 n168
b000000 n169
b000000 n170
#55
b0 n36
#60
1!
b00000000000000000000000000000110 t
b1 n36
b010100 n0
b0 n1
b00001 n2
b00010 n3
b00110 n4
b00010 n5
b00000 n6
b00000 n7
b00001 n8
b00000 n9
b00001111 n10
b000 n11
b100 n12
b00000001 n13
b1010 n14
b0010 n15
b1010 n16
b00 n17
b0001 n18
b0101 n19
b0000000000000000 n20
b0000000000000000 n21
b0000000000000000 n22
b0000000000000000 n23
b0000000000000000 n24
b0000000000000000 n25
b0000000000000000 n26
b0000000000000000 n27
b0000000000000000 n28
b0000000000000000 n29
b0000000000000000 n30
b0000000000000000 n31
b0000000000000000 n32
b0000000000000000 n33
b0000000000000000 n34
b0000000000000000 n35
b0 n37
b0 n38
b0 n39
b0 n40
b0 n41
b0 n42
b0 n43
b0 n44
b0 n45
b0 n46
b0 n47
b0 n48
b0 n49
b0 n50
b0 n51
b0 n52
b0 n53
b00000000000000000000000000010000 n54
b0000000000011110 n55
b0 n56
b00000000000100100000000100110011 n57
b011000 n58
b001 n59
b001100 n60
b000 n61
b0 n62
b010 n63
b000 n64
b0000000 n65
b000000000010 n66
b001 n67
b00000000001000100000000010110011 n68
b0110011 n69
b00001 n70
b00100 n71
b00010 n72
b0000000000000000 n73
b0000000000000000 n74
b0000000000000000 n75
b0000000000000000 n76
b0000000000000000 n77
b0000000000000000 n78
b0000000000000000 n79
b0000000000000000 n80
b0000000000000000 n81
b0000000000010000 n82
b0000000000000000 n83
b0000000000000000 n84
b0000000000000000 n85
b0000000000000000 n86
b0000000000000000 n87
b0000000000000000 n88
b0 n89
b0 n90
b0000 n91
b1000 n92
b0010 n93
b1000 n94
b1000 n95
b1000 n96
b1000 n97
b0011 n98
b1000 n99
bxxxx n100
b1000 n101
b1000 n102
b001 n103
b011 n104
b000 n105
b010 n106
b001 n107
b001 n108
b001 n109
b001 n110
b001000 n111
b010000 n112
b000100 n113
b001100 n114
b011 n115
b001 n116
b001 n117
b101 n118
b000 n119
b000 n120
b111 n121
b111 n122
b0 n123
b0 n124
b0 n125
b0 n126
b0 n127
b0 n128
b0 n129
b0 n130
b0 n131
b0 n132
b0 n133
b0 n134
b0 n135
b0 n136
b0 n137
b0 n138
b00000000000100100000000100110011 n139
b00000000000000000000000000000000 n140
b00000000000000000000000000000000 n141
b00000000000000000000000000000000 n142
b00000000000100100000000100110011 n143
b00000000000000000000000000000000 n144
b00000000000000000000000000000000 n145
b00000000010100100000001100110011 n146
b00000000000000000000000000000000 n147
b00000000000000000000000000000000 n148
b00000000001000100000000010110011 n149
b00000000000000000000000000000000 n150
b00000000000000000000000000000000 n151
b00000000001000100000000010110011 n152
b00000000000000000000000000000000 n153
b00000000000000000000000000000000 n154
b001000 n155
b000000 n156
b000000 n157
b000000 n158
b010000 n159
b000000 n160
b000000 n161
b001100 n162
b000000 n163
b000000 n164
b010100 n165
b000000 n166
b000000 n167
b000100 n168
b000000 n169
b000000 n170
#65
b0 n36
